{
    "current_page": 1,
    "total": 16,
    "pages": 4,
    "per_page": 5,
    "data": [{
        "id": "197",
        "froms": "2",
        "name": "\u7ade\u8d5b\u5fc5\u770b",
        "title": "",
        "cate_id": "18",
        "cate_child": "42",
        "img": "http:\/\/w2.mamawozaizhe.com:9001\/video\/197\/1545914012.jpg",
        "read_num": "2",
        "teacher_name": "\u5468\u5f00\u519b",
        "school_name": "\u6dee\u5317\u5e02\u897f\u56ed\u4e2d\u5b66"
    }, {
        "id": "196",
        "froms": "2",
        "name": "\u4eba\u6559\u724812\u3001\u5316\u5b66\u4e0e\u751f\u6d3b",
        "title": "\u8bfe\u98981\u3000\u4eba\u7c7b\u91cd\u8981\u7684\u8425\u517b\u7269\u8d28  \u3000\u3000\u8bfe\u98982\u3000\u5316\u5b66\u5143\u7d20\u4e0e\u4eba\u4f53\u5065\u5eb7  \u3000\u3000\r\n\u8bfe\u9898",
        "cate_id": "18",
        "cate_child": "42",
        "img": "http:\/\/w2.mamawozaizhe.com:9001\/video\/196\/1545912797.jpg",
        "read_num": "1",
        "teacher_name": "\u5468\u5f00\u519b",
        "school_name": "\u6dee\u5317\u5e02\u897f\u56ed\u4e2d\u5b66"
    }, {
        "id": "195",
        "froms": "2",
        "name": "\u4eba\u6559\u724811\u3001\u76d0\u3000\u5316\u80a5",
        "title": "\u8bfe\u98981\u3000\u751f\u6d3b\u4e2d\u5e38\u89c1\u7684\u76d0  \u8bfe\u98982\u3000\u5316\u5b66\u80a5\u6599 \u5b9e\u9a8c\u6d3b\u52a88 \u7c97\u76d0\u4e2d\u96be\u6eb6\u6027\u6742\u8d28\u7684\u53bb",
        "cate_id": "18",
        "cate_child": "42",
        "img": "http:\/\/w2.mamawozaizhe.com:9001\/video\/195\/1545912460.jpg",
        "read_num": "0",
        "teacher_name": "\u5468\u5f00\u519b",
        "school_name": "\u6dee\u5317\u5e02\u897f\u56ed\u4e2d\u5b66"
    }, {
        "id": "194",
        "froms": "2",
        "name": "\u4eba\u6559\u724810\u3001\u9178\u548c\u78b1",
        "title": "\u8bfe\u98981\u3000\u5e38\u89c1\u7684\u9178\u548c\u78b1   \u8bfe\u98982\u3000\u9178\u548c\u78b1\u7684\u4e2d\u548c\u53cd\u5e94  \r\n\u5b9e\u9a8c\u6d3b\u52a86 \u9178\u3001\u78b1",
        "cate_id": "18",
        "cate_child": "42",
        "img": "http:\/\/w2.mamawozaizhe.com:9001\/video\/194\/1545911712.jpg",
        "read_num": "0",
        "teacher_name": "\u5468\u5f00\u519b",
        "school_name": "\u6dee\u5317\u5e02\u897f\u56ed\u4e2d\u5b66"
    }, {
        "id": "193",
        "froms": "2",
        "name": "\u4eba\u6559\u72489\u3001\u6eb6\u6db2",
        "title": "\u8bfe\u98981\u3000\u6eb6\u6db2\u7684\u5f62\u6210  \u3000\u3000\u8bfe\u98982\u3000\u6eb6\u89e3\u5ea6   \u8bfe\u98983\u3000\u6eb6\u8d28\u7684\u6d53\u5ea6 \r\n\u5b9e\u9a8c\u6d3b",
        "cate_id": "18",
        "cate_child": "42",
        "img": "http:\/\/w2.mamawozaizhe.com:9001\/video\/193\/1545911079.jpg",
        "read_num": "0",
        "teacher_name": "\u5468\u5f00\u519b",
        "school_name": "\u6dee\u5317\u5e02\u897f\u56ed\u4e2d\u5b66"
    }]
}